Research
…
migration_region %>%
  group_by(Country) %>%
  summarise(
    miss_refugees = sum(is.na(Refugees)),
    miss_migrants = sum(is.na(Migrants))
  ) %>% 
  filter(miss_refugees >0 | miss_migrants >0)

## # A tibble: 62 × 3
##    Country                          miss_refugees miss_migrants
##    <chr>                                    <int>         <int>
##  1 American Samoa                               6             0
##  2 Andorra                                      6             0
##  3 Anguilla                                     6             0
##  4 Antigua and Barbuda                          6             0
##  5 Aruba                                        6             0
##  6 Barbados                                     6             0
##  7 Bermuda                                      6             0
##  8 Bhutan                                       6             0
##  9 Bonaire, Sint Eustatius and Saba             6             0
## 10 Brunei Darussalam                            6             0
## # ℹ 52 more rows

migration_region %>%
  group_by(region, year, Country) %>%
  summarise(
    miss_refugees = sum(is.na(Refugees)),
    miss_migrants = sum(is.na(Migrants))
  ) %>% 
  filter(miss_refugees >0 | miss_migrants >0) %>% 
  arrange(Country)

## `summarise()` has grouped output by 'region', 'year'. You can override
## using the `.groups` argument.

## # A tibble: 370 × 5
## # Groups:   region, year [36]
##    region               year Country        miss_refugees miss_migrants
##    <chr>               <int> <chr>                  <int>         <int>
##  1 Territories/Others   1990 American Samoa             1             0
##  2 Territories/Others   1995 American Samoa             1             0
##  3 Territories/Others   2000 American Samoa             1             0
##  4 Territories/Others   2005 American Samoa             1             0
##  5 Territories/Others   2010 American Samoa             1             0
##  6 Territories/Others   2015 American Samoa             1             0
##  7 Developed countries  1990 Andorra                    1             0
##  8 Developed countries  1995 Andorra                    1             0
##  9 Developed countries  2000 Andorra                    1             0
## 10 Developed countries  2005 Andorra                    1             0
## # ℹ 360 more rows
…
